FORMAT: [Variable name - matched from Timber],[Unit of Variable],[Variable datatype]
GIF-active-users,,
# Gif++,,
ATMOSPHERIC_PRESSURE,mbar,float
CMS_CSC,,float
CMS_DT,,float
EXHAUST,,float
HUMIDITY_GAS_ZONE,%,float
HUMIDITY_INSIDE_BUNKER,%,float
HUMIDITY_OUTSIDE_BUNKER,%,float
NO_RETURN_FLOW,,boolean
RP_COSMIC_TRIGGER,,boolean
TEMP_GAS_ZONE,C,float
TEMP_INSIDE_BUNKER,C,float
TEMP_OUTSIDE_BUNKER,C,float
TGC_BEAM_TRIGGER,,boolean
# Downstream_Attuneators,,
DOWNSTREAM_A_STS,,boolean
DOWNSTREAM_B_STS,,boolean
DOWNSTREAM_C_STS,,boolean
DOWNSTREAM_EFFECTIVE_ATTENUATION,,float
# Upstream_Attuneators,,
UPSTREAM_A_STS,,boolean
UPSTREAM_B_STS,,boolean
UPSTREAM_C_STS,,boolean
UPSTREAM_EFFECTIVE_ATTENUATION,,float
# Irradiator,,
EMERGENCY_STOP,,boolean
MOVING,,boolean
SIREN,,boolean
SOURCE_OFF,,boolean
SOURCE_ON,,boolean
VETO,,boolean
# Radmon,,
RADMON_1_REM_DOSE,Gy,float
RADMON_1_TEMPERATURE,C,float
RADMON_2_REM_DOSE,Gy,float
RADMON_2_TEMPERATURE,C,float
RADMON_3_REM_DOSE,Gy,float
RADMON_3_TEMPERATURE,C,float
RADMON_4_REM_DOSE,Gy,float
RADMON_4_TEMPERATURE,C,float
RADMON_5_REM_DOSE,Gy,float
RADMON_5_TEMPERATURE,C,float
RADMON_6_REM_DOSE,Gy,float
RADMON_6_TEMPERATURE,C,float
RADMON_7_REM_DOSE,Gy,float
RADMON_7_TEMPERATURE,C,float
RADMON_8_REM_DOSE,Gy,float
RADMON_8_TEMPERATURE,C,float
# Gas_System,,
RPC_C2H2F4_FLOW,ln/h,float
RPC_DEW_POINT,C,float
RPC_IC4H10_FLOW,ln/h,float
RPC_IC4H10_IR,%,float
RPC_SF6_FLOW,ln/h,float
TGC_CO2_FLOW,ln/min,float
