FORMAT: [Variable name - matched from Timber],[Unit of Variable],[Variable datatype]
GIF-active-users
#	Gif++
ATMOSPHERIC_PRESSURE,mbar,float
CMS_CSC,,float
CMS_DT,,float
EXHAUST,,float
HUMIDITY_INSIDE_BUNKER,%,float
HUMIDITY_OUTSIDE_BUNKER,%,float
#	Downstream_Attuneators
DOWNSTREAM_A_STS,,boolean
DOWNSTREAM_B_STS,,boolean
DOWNSTREAM_C_STS,,boolean
DOWNSTREAM_EFFECTIVE_ATTENUATION,,float
#	Irradiator
EMERGENCY_STOP,,boolean
MOVING,,boolean
